<svg id="Layer_1" data-name="Layer 1" xmlns="http://www.w3.org/2000/svg" viewBox="0 0 54 54">
  <title>Icon</title>
  <g>
    <path d="M6.68,33.42c0-.18,0-.37.05-.55a2.13,2.13,0,0,1,1-1.47c1.35-.86,2.73-1.69,4.11-2.5,1-.57,2-1.12,3-1.65a2.66,2.66,0,0,1,3,.42l.31.27v-.27c0-2.07,0-4.14,0-6.21a2.57,2.57,0,0,1,.56-1.55,2.91,2.91,0,0,1,4.54-.06,2.56,2.56,0,0,1,.56,1.55c0,.86.07,1.72.08,2.59,0,3.67,0,7.34,0,11v.31l.23-.21a11.58,11.58,0,0,1,1.87-1.55,5.65,5.65,0,0,1,5.7-.19,2.49,2.49,0,0,1,.63.49.85.85,0,0,1,0,1.21c-1.16,1.19-2.32,2.39-3.5,3.57-2.17,2.15-4.36,4.27-6.52,6.43a8.86,8.86,0,0,1-4.54,2.41,7.53,7.53,0,0,1-1.43.11,8.77,8.77,0,0,1-2.23-.11A9.36,9.36,0,0,1,7,40.79a5.28,5.28,0,0,1-.26-1.58,1.62,1.62,0,0,0,0-.2Z" fill="gray"/>
    <path d="M47,22.39l-.19.36a3.22,3.22,0,0,1-1.45,1.49,1.5,1.5,0,0,1-.72.2c-2,0-4,.07-6,.09l-7.3,0a.42.42,0,0,0-.34.14L27,28.64l-.18.21c0-.11,0-.16,0-.21q0-9.13,0-18.26a3,3,0,0,1,.54-2,2.63,2.63,0,0,1,2.1-1.11l5.25,0H43c.56,0,1.11,0,1.67.08a2.31,2.31,0,0,1,1.71,1,7.62,7.62,0,0,1,.48.77l.13.2Zm-14.38-.73h.25c.63,0,1.27,0,1.91,0a.3.3,0,0,0,.33-.19l6-11.14a1.86,1.86,0,0,0,.1-.2H41c-.64,0-1.29,0-1.93,0a.3.3,0,0,0-.33.2l-6,11.11C32.69,21.5,32.67,21.56,32.62,21.66ZM35.44,13a2.81,2.81,0,0,0-2.93-2.91,2.9,2.9,0,0,0-2.77,2.92,2.85,2.85,0,0,0,5.7,0Zm8.66,5.68a2.82,2.82,0,0,0-3-2.81,2.88,2.88,0,0,0-2.66,3,2.76,2.76,0,0,0,.89,2,2.93,2.93,0,0,0,2.37.73A2.78,2.78,0,0,0,44.1,18.72Z" fill="gray"/>
    <path d="M22.5,15.88H19.64V10.14H22.5Z" fill="gray"/>
    <path d="M15.28,23.09H9.53V20.23h5.75Z" fill="gray"/>
    <path d="M18,16.61c-.61.58-1.24,1.18-1.86,1.79-.11.1-.19.1-.29,0L13.9,16.52c-.64-.62-1.26-1.26-1.89-1.89a.56.56,0,0,1-.11-.11l2-2Z" fill="gray"/>
    <path d="M31.44,13a1.3,1.3,0,0,1,1.18-1.17A1.33,1.33,0,0,1,33.79,13a1.18,1.18,0,0,1-2.35,0Z" fill="gray"/>
    <path d="M41.29,17.61a1.29,1.29,0,0,1,1.15,1.17A1.3,1.3,0,0,1,41.26,20a1.32,1.32,0,0,1-1.16-1.17A1.28,1.28,0,0,1,41.29,17.61Z" fill="gray"/>
  </g>
</svg>
